%YAML 1.1
%TAG !u! tag:unity3d.com,2011:
--- !u!114 &11400000
MonoBehaviour:
  m_ObjectHideFlags: 0
  m_CorrespondingSourceObject: {fileID: 0}
  m_PrefabInstance: {fileID: 0}
  m_PrefabAsset: {fileID: 0}
  m_GameObject: {fileID: 0}
  m_Enabled: 1
  m_EditorHideFlags: 0
  m_Script: {fileID: 11500000, guid: 2a476fa7022cd5a4fb64190d0b96f065, type: 3}
  m_Name: love
  m_EditorClassIdentifier: 
  id: love
  _ingredients:
    reorderableList:
      canAdd: 1
      canRemove: 1
      draggable: 1
      expandable: 1
      multipleSelection: 1
      isExpanded: 1
      label:
        m_Text: Keys
        m_Image: {fileID: 0}
        m_Tooltip: 
      headerHeight: 18
      footerHeight: 13
      slideEasing: 0.15
      verticalSpacing: 2
      showDefaultBackground: 1
      elementDisplayType: 0
      elementNameProperty: 
      elementNameOverride: 
      elementIcon: {fileID: 0}
    reqReferences: {fileID: 11400000, guid: 3d6785e46e940b843aa5fbe4ca729d60, type: 2}
    isExpanded: 1
    _keyValues:
    - {fileID: 11400000, guid: f402a84de9948b84bb8b2809b63271ef, type: 2}
    - {fileID: 11400000, guid: f72fc5af403dc7546be8e528521a4651, type: 2}
    - {fileID: 11400000, guid: 420f12de2cdb96b43b38d18baa8bedd0, type: 2}
    _keys:
    - {fileID: 11400000, guid: f402a84de9948b84bb8b2809b63271ef, type: 2}
    - {fileID: 11400000, guid: f72fc5af403dc7546be8e528521a4651, type: 2}
    - {fileID: 11400000, guid: 420f12de2cdb96b43b38d18baa8bedd0, type: 2}
    _values: 010000000100000001000000
